{
  "posts": [
    {
      "title": "TEST",
      "user": "Ania",
      "age": "5",
      "sex": "Kobieta",
      "body": "Lorem ipsum dolor sit amet, consectetur adipiscing elit. Proin commodo dolor ac lorem malesuada sagittis ut at nibh. Sed non tempus lectus. Etiam vitae ornare ipsum, ut scelerisque sapien. Sed interdum auctor eros, a ullamcorper libero sodales id. Aenean at egestas est, eget suscipit sapien. Maecenas vel erat velit. ",
      "id": 4
    },
    {
      "title": "TESTOWANIE",
      "user": "Ala",
      "age": "55",
      "sex": "Kobieta",
      "body": "Lorem ipsum dolor sit amet, consectetur adipiscing elit. Proin commodo dolor ac lorem malesuada sagittis ut at nibh. Sed non tempus lectus. Etiam vitae ornare ipsum, ut scelerisque sapien. Sed interdum auctor eros, a ullamcorper libero sodales id. Aenean at egestas est, eget suscipit sapien. Maecenas vel erat velit. ",
      "id": 5
    },
    {
      "title": "TESTt",
      "user": "BBB",
      "age": "55",
      "sex": "test",
      "body": "Lorem ipsum dolor sit amet, consectetur adipiscing elit. Proin commodo dolor ac lorem malesuada sagittis ut at nibh. Sed non tempus lectus. Etiam vitae ornare ipsum, ut scelerisque sapien. Sed interdum auctor eros, a ullamcorper libero sodales id. Aenean at egestas est, eget suscipit sapien. Maecenas vel erat velit. ",
      "id": 6
    },
    {
      "title": "Taki sobie w",
      "user": "Ania",
      "age": "5",
      "sex": "Kobieta",
      "body": "Blaa ballla sjahlfk",
      "id": 8
    },
    {
      "title": "Asasass",
      "user": "Asasass",
      "age": "Asasass",
      "sex": "Asasass",
      "body": "Asasass",
      "id": 11
    },
    {
      "title": "aaaa",
      "user": "55555555",
      "age": "555555555",
      "sex": "5555555f",
      "body": "555555555",
      "id": 12
    },
    {
      "title": "sdggf",
      "user": "dgsg",
      "age": "dsg",
      "sex": "dsgf",
      "body": "dgsg",
      "id": 13
    },
    {
      "title": "Bestia",
      "user": "Bestia",
      "age": "3",
      "sex": "Kotka",
      "body": "Bestia jest bardzo złym kotem",
      "id": 14
    },
    {
      "title": "Cały tytuł",
      "user": "Kasia",
      "age": "5",
      "sex": "Mężczyzna",
      "body": "Lorem ipsum dolor sit amet, consectetur adipiscing elit. Donec sed est gravida, convallis nisl vestibulum, sodales neque. Suspendisse feugiat sodales neque, sed maximus tellus scelerisque porttitor. Integer venenatis fringilla commodo. Integer in urna accumsan, blandit libero quis, ultricies orci.",
      "id": 15
    },
    {
      "title": "Kot który spał na biurku",
      "user": "Gabi",
      "age": "25",
      "sex": "Kobieta",
      "body": "Bestia nie daje mi pracować, bo śpi na moim buirku",
      "id": 16
    },
    {
      "title": "Figa to pasztet",
      "user": "Figa",
      "age": "12",
      "sex": "Suczka",
      "body": "Morbi quis tortor nibh. In aliquet lacus nec lorem rutrum, non convallis eros auctor. Cras maximus lorem bibendum sodales tincidunt. Nullam aliquet diam est, pulvinar pharetra nibh bibendum at. Pellentesque habitant morbi tristique senectus et netus et malesuada fames ac turpis egestas.",
      "id": 17
    },
    {
      "title": "Kulka Kulka Kulka",
      "user": "Kulka",
      "age": "8",
      "sex": "Kotka",
      "body": "Suspendisse potenti. Nullam non finibus magna, nec vehicula urna. Sed vitae nunc rhoncus sapien hendrerit tristique. Quisque ipsum nisi, pharetra sit amet dapibus sed, placerat at ligula. Nunc gravida quis dolor sit amet aliquet. Fusce elementum dui diam, quis tempus arcu interdum a. Aliquam eget neque convallis dolor condimentum pretium. Phasellus gravida dui lectus, et tempor nunc malesuada id. Suspendisse facilisis tellus elit, nec euismod nibh posuere et. Vivamus vitae nunc id velit viverra hendrerit. Cras enim enim, molestie eu hendrerit a, ultrices quis orci. Vestibulum mattis pellentesque nulla, quis dapibus orci iaculis ac. Praesent at tellus fringilla, posuere orci eu, faucibus dui.",
      "id": 18
    },
    {
      "title": "Czarny kot",
      "user": "Kropka",
      "age": "5",
      "sex": "Kotka",
      "body": "Aenean ex diam, malesuada et ullamcorper ut, pellentesque id sem. Class aptent taciti sociosqu ad litora torquent per conubia nostra, per inceptos himenaeos. Proin turpis tellus, molestie ac nisl eu, malesuada tempus nisl. Nam vel augue vel nibh ultrices faucibus. Aliquam feugiat mattis nisi, at vestibulum metus mattis in. Morbi porta bibendum enim, et auctor turpis fermentum eu. Nullam cursus sapien justo, et commodo leo hendrerit nec. Ut scelerisque elementum nisl quis suscipit. Fusce pulvinar convallis nisl id rhoncus. Nam libero dui, porttitor nec dui quis, maximus pharetra dolor. Aliquam erat volutpat. Nunc sit amet leo ullamcorper enim dapibus tristique.",
      "id": 19
    },
    {
      "title": "Zły kot",
      "user": "Bestia",
      "age": "2",
      "sex": "Kociczka",
      "body": "Praesent efficitur non risus vel pharetra. Nullam dapibus vel nisi non facilisis. Mauris elementum in elit nec iaculis. Curabitur dui erat, laoreet et tristique a, commodo a tortor. Suspendisse scelerisque blandit feugiat. Duis vulputate purus ligula, sed iaculis ante fermentum quis. Integer laoreet viverra enim, at congue quam. Maecenas tempor leo massa, nec rutrum orci imperdiet id. Proin id imperdiet massa. Quisque et tortor diam. Etiam justo urna, facilisis et massa non, ultrices varius ipsum. Class aptent taciti sociosqu ad litora torquent per conubia nostra, per inceptos himenaeos. Ut semper tellus eget facilisis hendrerit. Ut rutrum maximus enim sit amet lobortis. Nulla at mattis nunc.",
      "id": 20
    },
    {
      "title": "Blabla",
      "user": "Gabi",
      "age": "5",
      "sex": "Kobieta",
      "body": "dzhxfg dfg",
      "id": 22
    },
    {
      "title": "Lorem ipsum dolor!!",
      "user": "Darek",
      "age": "25",
      "sex": "Mężczyzna",
      "body": "Cras tempor metus nec eleifend elementum. Vestibulum pulvinar sapien quis eros mattis facilisis. In porta interdum massa vel auctor. Sed eget eros lacus. Vivamus efficitur consectetur accumsan. Nam ullamcorper sollicitudin leo, nec facilisis purus blandit a. Ut risus turpis, finibus non tincidunt non, molestie blandit purus. Donec suscipit viverra maximus. Mauris pretium erat ut dolor ullamcorper ornare. Curabitur vel ipsum finibus, blandit enim a, lobortis mauris. Vestibulum non neque fringilla, mattis velit id, euismod turpis.",
      "id": 23
    }
  ]
}